afraid	-1
scared	-1
frightened	-1
nervous	-1
jittery	-1
haky	-1
angry	-1
hostile	-1
irritable	-1
scornful	-1
disgusted	-1
loathing	-1
guilty	-1
ashamed	-1
blameworthy	-1
dissatisfied	-1
sad	-1
blue	-1
downhearted	-1
alone	-1
lonely	-1
sleepy	-1
tired	-1
sluggish	-1
drowsy	-1
shy	-1
bashful	-1
sheepish	-1
timid	-1